^C:\USERS\HSCC\DOCUMENTS\GITHUB\CALCULATOR\視窗程式設計第5次作業_4105056021_賴怡呈\STDAFX.CPP
C:\USERS\HSCC\DOCUMENTS\GITHUB\CALCULATOR\視窗程式設計第5次作業_4105056021_賴怡呈\DEBUG\視窗程式設計第5次作業_4105056021_賴怡呈.PCH
C:\USERS\HSCC\DOCUMENTS\GITHUB\CALCULATOR\視窗程式設計第5次作業_4105056021_賴怡呈\DEBUG\VC140.PDB
C:\USERS\HSCC\DOCUMENTS\GITHUB\CALCULATOR\視窗程式設計第5次作業_4105056021_賴怡呈\DEBUG\STDAFX.OBJ
^C:\USERS\HSCC\DOCUMENTS\GITHUB\CALCULATOR\視窗程式設計第5次作業_4105056021_賴怡呈\ASSEMBLYINFO.CPP|C:\USERS\HSCC\DOCUMENTS\GITHUB\CALCULATOR\視窗程式設計第5次作業_4105056021_賴怡呈\INPUT.CPP|C:\USERS\HSCC\DOCUMENTS\GITHUB\CALCULATOR\視窗程式設計第5次作業_4105056021_賴怡呈\MYFORM.CPP|C:\USERS\HSCC\DOCUMENTS\GITHUB\CALCULATOR\視窗程式設計第5次作業_4105056021_賴怡呈\MYFORM1.CPP|C:\USERS\HSCC\DOCUMENTS\GITHUB\CALCULATOR\視窗程式設計第5次作業_4105056021_賴怡呈\MYFORM2.CPP|C:\USERS\HSCC\DOCUMENTS\GITHUB\CALCULATOR\視窗程式設計第5次作業_4105056021_賴怡呈\MYFORM3.CPP|C:\USERS\HSCC\DOCUMENTS\GITHUB\CALCULATOR\視窗程式設計第5次作業_4105056021_賴怡呈\READFILE.CPP|C:\USERS\HSCC\DOCUMENTS\GITHUB\CALCULATOR\視窗程式設計第5次作業_4105056021_賴怡呈\視窗程式設計第5次作業_4105056021_賴怡呈.CPP
C:\USERS\HSCC\DOCUMENTS\GITHUB\CALCULATOR\視窗程式設計第5次作業_4105056021_賴怡呈\DEBUG\VC140.PDB
C:\USERS\HSCC\DOCUMENTS\GITHUB\CALCULATOR\視窗程式設計第5次作業_4105056021_賴怡呈\DEBUG\READFILE.OBJ
C:\USERS\HSCC\DOCUMENTS\GITHUB\CALCULATOR\視窗程式設計第5次作業_4105056021_賴怡呈\DEBUG\MYFORM3.OBJ
C:\USERS\HSCC\DOCUMENTS\GITHUB\CALCULATOR\視窗程式設計第5次作業_4105056021_賴怡呈\DEBUG\MYFORM2.OBJ
C:\USERS\HSCC\DOCUMENTS\GITHUB\CALCULATOR\視窗程式設計第5次作業_4105056021_賴怡呈\DEBUG\MYFORM1.OBJ
C:\USERS\HSCC\DOCUMENTS\GITHUB\CALCULATOR\視窗程式設計第5次作業_4105056021_賴怡呈\DEBUG\INPUT.OBJ
C:\USERS\HSCC\DOCUMENTS\GITHUB\CALCULATOR\視窗程式設計第5次作業_4105056021_賴怡呈\DEBUG\ASSEMBLYINFO.OBJ
^C:\USERS\HSCC\DOCUMENTS\GITHUB\CALCULATOR\視窗程式設計第5次作業_4105056021_賴怡呈\ASSEMBLYINFO.CPP
C:\USERS\HSCC\DOCUMENTS\GITHUB\CALCULATOR\視窗程式設計第5次作業_4105056021_賴怡呈\DEBUG\ASSEMBLYINFO.OBJ
^C:\USERS\HSCC\DOCUMENTS\GITHUB\CALCULATOR\視窗程式設計第5次作業_4105056021_賴怡呈\INPUT.CPP
C:\USERS\HSCC\DOCUMENTS\GITHUB\CALCULATOR\視窗程式設計第5次作業_4105056021_賴怡呈\DEBUG\INPUT.OBJ
^C:\USERS\HSCC\DOCUMENTS\GITHUB\CALCULATOR\視窗程式設計第5次作業_4105056021_賴怡呈\MYFORM1.CPP
C:\USERS\HSCC\DOCUMENTS\GITHUB\CALCULATOR\視窗程式設計第5次作業_4105056021_賴怡呈\DEBUG\MYFORM1.OBJ
^C:\USERS\HSCC\DOCUMENTS\GITHUB\CALCULATOR\視窗程式設計第5次作業_4105056021_賴怡呈\MYFORM2.CPP
C:\USERS\HSCC\DOCUMENTS\GITHUB\CALCULATOR\視窗程式設計第5次作業_4105056021_賴怡呈\DEBUG\MYFORM2.OBJ
^C:\USERS\HSCC\DOCUMENTS\GITHUB\CALCULATOR\視窗程式設計第5次作業_4105056021_賴怡呈\MYFORM3.CPP
C:\USERS\HSCC\DOCUMENTS\GITHUB\CALCULATOR\視窗程式設計第5次作業_4105056021_賴怡呈\DEBUG\MYFORM3.OBJ
^C:\USERS\HSCC\DOCUMENTS\GITHUB\CALCULATOR\視窗程式設計第5次作業_4105056021_賴怡呈\READFILE.CPP
C:\USERS\HSCC\DOCUMENTS\GITHUB\CALCULATOR\視窗程式設計第5次作業_4105056021_賴怡呈\DEBUG\READFILE.OBJ
^C:\USERS\HSCC\APPDATA\LOCAL\TEMP\.NETFRAMEWORK,VERSION=V4.5.2.ASSEMBLYATTRIBUTES.CPP
C:\USERS\HSCC\DOCUMENTS\GITHUB\CALCULATOR\視窗程式設計第5次作業_4105056021_賴怡呈\DEBUG\VC140.PDB
C:\USERS\HSCC\DOCUMENTS\GITHUB\CALCULATOR\視窗程式設計第5次作業_4105056021_賴怡呈\DEBUG\.NETFRAMEWORK,VERSION=V4.5.2.ASSEMBLYATTRIBUTES.OBJ
C:\USERS\HSCC\DOCUMENTS\GITHUB\CALCULATOR\視窗程式設計第5次作業_4105056021_賴怡呈\DEBUG\.NETFRAMEWORK,VERSION=V4.5.2.ASSEMBLYATTRIBUTES.ASM
^C:\USERS\HSCC\DOCUMENTS\GITHUB\CALCULATOR\視窗程式設計第5次作業_4105056021_賴怡呈\MYFORM.CPP|C:\USERS\HSCC\DOCUMENTS\GITHUB\CALCULATOR\視窗程式設計第5次作業_4105056021_賴怡呈\視窗程式設計第5次作業_4105056021_賴怡呈.CPP
C:\USERS\HSCC\DOCUMENTS\GITHUB\CALCULATOR\視窗程式設計第5次作業_4105056021_賴怡呈\DEBUG\VC140.PDB
C:\USERS\HSCC\DOCUMENTS\GITHUB\CALCULATOR\視窗程式設計第5次作業_4105056021_賴怡呈\DEBUG\視窗程式設計第5次作業_4105056021_賴怡呈.OBJ
C:\USERS\HSCC\DOCUMENTS\GITHUB\CALCULATOR\視窗程式設計第5次作業_4105056021_賴怡呈\DEBUG\MYFORM.OBJ
^C:\USERS\HSCC\DOCUMENTS\GITHUB\CALCULATOR\視窗程式設計第5次作業_4105056021_賴怡呈\MYFORM.CPP
C:\USERS\HSCC\DOCUMENTS\GITHUB\CALCULATOR\視窗程式設計第5次作業_4105056021_賴怡呈\DEBUG\VC140.PDB
^C:\USERS\HSCC\DOCUMENTS\GITHUB\CALCULATOR\視窗程式設計第5次作業_4105056021_賴怡呈\視窗程式設計第5次作業_4105056021_賴怡呈.CPP
C:\USERS\HSCC\DOCUMENTS\GITHUB\CALCULATOR\視窗程式設計第5次作業_4105056021_賴怡呈\DEBUG\VC140.PDB
^C:\USERS\HSCC\DOCUMENTS\GITHUB\SE_TEAMPROJECT\CALCULATOR\視窗程式設計第5次作業_4105056021_賴怡呈\STDAFX.CPP
C:\USERS\HSCC\DOCUMENTS\GITHUB\SE_TEAMPROJECT\CALCULATOR\視窗程式設計第5次作業_4105056021_賴怡呈\DEBUG\視窗程式設計第5次作業_4105056021_賴怡呈.PCH
C:\USERS\HSCC\DOCUMENTS\GITHUB\SE_TEAMPROJECT\CALCULATOR\視窗程式設計第5次作業_4105056021_賴怡呈\DEBUG\VC142.PDB
C:\USERS\HSCC\DOCUMENTS\GITHUB\SE_TEAMPROJECT\CALCULATOR\視窗程式設計第5次作業_4105056021_賴怡呈\DEBUG\STDAFX.OBJ
^C:\USERS\HSCC\DOCUMENTS\GITHUB\SE_TEAMPROJECT\CALCULATOR\視窗程式設計第5次作業_4105056021_賴怡呈\INPUT.CPP|C:\USERS\HSCC\DOCUMENTS\GITHUB\SE_TEAMPROJECT\CALCULATOR\視窗程式設計第5次作業_4105056021_賴怡呈\MYFORM.CPP|C:\USERS\HSCC\DOCUMENTS\GITHUB\SE_TEAMPROJECT\CALCULATOR\視窗程式設計第5次作業_4105056021_賴怡呈\READFILE.CPP|C:\USERS\HSCC\DOCUMENTS\GITHUB\SE_TEAMPROJECT\CALCULATOR\視窗程式設計第5次作業_4105056021_賴怡呈\視窗程式設計第5次作業_4105056021_賴怡呈.CPP
C:\USERS\HSCC\DOCUMENTS\GITHUB\SE_TEAMPROJECT\CALCULATOR\視窗程式設計第5次作業_4105056021_賴怡呈\DEBUG\VC142.PDB
C:\USERS\HSCC\DOCUMENTS\GITHUB\SE_TEAMPROJECT\CALCULATOR\視窗程式設計第5次作業_4105056021_賴怡呈\DEBUG\視窗程式設計第5次作業_4105056021_賴怡呈.OBJ
C:\USERS\HSCC\DOCUMENTS\GITHUB\SE_TEAMPROJECT\CALCULATOR\視窗程式設計第5次作業_4105056021_賴怡呈\DEBUG\READFILE.OBJ
C:\USERS\HSCC\DOCUMENTS\GITHUB\SE_TEAMPROJECT\CALCULATOR\視窗程式設計第5次作業_4105056021_賴怡呈\DEBUG\MYFORM.OBJ
C:\USERS\HSCC\DOCUMENTS\GITHUB\SE_TEAMPROJECT\CALCULATOR\視窗程式設計第5次作業_4105056021_賴怡呈\DEBUG\INPUT.OBJ
^C:\USERS\HSCC\DOCUMENTS\GITHUB\SE_TEAMPROJECT\CALCULATOR\視窗程式設計第5次作業_4105056021_賴怡呈\DEBUG\.NETFRAMEWORK,VERSION=V4.5.2.ASSEMBLYATTRIBUTES.CPP
C:\USERS\HSCC\DOCUMENTS\GITHUB\SE_TEAMPROJECT\CALCULATOR\視窗程式設計第5次作業_4105056021_賴怡呈\DEBUG\VC142.PDB
C:\USERS\HSCC\DOCUMENTS\GITHUB\SE_TEAMPROJECT\CALCULATOR\視窗程式設計第5次作業_4105056021_賴怡呈\DEBUG\.NETFRAMEWORK,VERSION=V4.5.2.ASSEMBLYATTRIBUTES.OBJ
^C:\USERS\HSCC\DOCUMENTS\GITHUB\SE_TEAMPROJECT\CALCULATOR\視窗程式設計第5次作業_4105056021_賴怡呈\ASSEMBLYINFO.CPP|C:\USERS\HSCC\DOCUMENTS\GITHUB\SE_TEAMPROJECT\CALCULATOR\視窗程式設計第5次作業_4105056021_賴怡呈\INPUT.CPP|C:\USERS\HSCC\DOCUMENTS\GITHUB\SE_TEAMPROJECT\CALCULATOR\視窗程式設計第5次作業_4105056021_賴怡呈\MYFORM.CPP|C:\USERS\HSCC\DOCUMENTS\GITHUB\SE_TEAMPROJECT\CALCULATOR\視窗程式設計第5次作業_4105056021_賴怡呈\MYFORM1.CPP|C:\USERS\HSCC\DOCUMENTS\GITHUB\SE_TEAMPROJECT\CALCULATOR\視窗程式設計第5次作業_4105056021_賴怡呈\MYFORM2.CPP|C:\USERS\HSCC\DOCUMENTS\GITHUB\SE_TEAMPROJECT\CALCULATOR\視窗程式設計第5次作業_4105056021_賴怡呈\MYFORM3.CPP|C:\USERS\HSCC\DOCUMENTS\GITHUB\SE_TEAMPROJECT\CALCULATOR\視窗程式設計第5次作業_4105056021_賴怡呈\READFILE.CPP|C:\USERS\HSCC\DOCUMENTS\GITHUB\SE_TEAMPROJECT\CALCULATOR\視窗程式設計第5次作業_4105056021_賴怡呈\視窗程式設計第5次作業_4105056021_賴怡呈.CPP
C:\USERS\HSCC\DOCUMENTS\GITHUB\SE_TEAMPROJECT\CALCULATOR\視窗程式設計第5次作業_4105056021_賴怡呈\DEBUG\VC142.PDB
C:\USERS\HSCC\DOCUMENTS\GITHUB\SE_TEAMPROJECT\CALCULATOR\視窗程式設計第5次作業_4105056021_賴怡呈\DEBUG\READFILE.OBJ
C:\USERS\HSCC\DOCUMENTS\GITHUB\SE_TEAMPROJECT\CALCULATOR\視窗程式設計第5次作業_4105056021_賴怡呈\DEBUG\MYFORM3.OBJ
C:\USERS\HSCC\DOCUMENTS\GITHUB\SE_TEAMPROJECT\CALCULATOR\視窗程式設計第5次作業_4105056021_賴怡呈\DEBUG\MYFORM2.OBJ
C:\USERS\HSCC\DOCUMENTS\GITHUB\SE_TEAMPROJECT\CALCULATOR\視窗程式設計第5次作業_4105056021_賴怡呈\DEBUG\MYFORM1.OBJ
C:\USERS\HSCC\DOCUMENTS\GITHUB\SE_TEAMPROJECT\CALCULATOR\視窗程式設計第5次作業_4105056021_賴怡呈\DEBUG\ASSEMBLYINFO.OBJ
^C:\USERS\HSCC\DOCUMENTS\GITHUB\SE_TEAMPROJECT\CALCULATOR\視窗程式設計第5次作業_4105056021_賴怡呈\ASSEMBLYINFO.CPP
C:\USERS\HSCC\DOCUMENTS\GITHUB\SE_TEAMPROJECT\CALCULATOR\視窗程式設計第5次作業_4105056021_賴怡呈\DEBUG\ASSEMBLYINFO.OBJ
^C:\USERS\HSCC\DOCUMENTS\GITHUB\SE_TEAMPROJECT\CALCULATOR\視窗程式設計第5次作業_4105056021_賴怡呈\MYFORM1.CPP
C:\USERS\HSCC\DOCUMENTS\GITHUB\SE_TEAMPROJECT\CALCULATOR\視窗程式設計第5次作業_4105056021_賴怡呈\DEBUG\MYFORM1.OBJ
^C:\USERS\HSCC\DOCUMENTS\GITHUB\SE_TEAMPROJECT\CALCULATOR\視窗程式設計第5次作業_4105056021_賴怡呈\MYFORM2.CPP
C:\USERS\HSCC\DOCUMENTS\GITHUB\SE_TEAMPROJECT\CALCULATOR\視窗程式設計第5次作業_4105056021_賴怡呈\DEBUG\MYFORM2.OBJ
^C:\USERS\HSCC\DOCUMENTS\GITHUB\SE_TEAMPROJECT\CALCULATOR\視窗程式設計第5次作業_4105056021_賴怡呈\MYFORM3.CPP
C:\USERS\HSCC\DOCUMENTS\GITHUB\SE_TEAMPROJECT\CALCULATOR\視窗程式設計第5次作業_4105056021_賴怡呈\DEBUG\MYFORM3.OBJ
^C:\USERS\HSCC\DOCUMENTS\GITHUB\SE_TEAMPROJECT\CALCULATOR\視窗程式設計第5次作業_4105056021_賴怡呈\READFILE.CPP
C:\USERS\HSCC\DOCUMENTS\GITHUB\SE_TEAMPROJECT\CALCULATOR\視窗程式設計第5次作業_4105056021_賴怡呈\DEBUG\READFILE.OBJ
^C:\USERS\HSCC\DOCUMENTS\GITHUB\SE_TEAMPROJECT\CALCULATOR\視窗程式設計第5次作業_4105056021_賴怡呈\INPUT.CPP|C:\USERS\HSCC\DOCUMENTS\GITHUB\SE_TEAMPROJECT\CALCULATOR\視窗程式設計第5次作業_4105056021_賴怡呈\MYFORM.CPP|C:\USERS\HSCC\DOCUMENTS\GITHUB\SE_TEAMPROJECT\CALCULATOR\視窗程式設計第5次作業_4105056021_賴怡呈\視窗程式設計第5次作業_4105056021_賴怡呈.CPP
C:\USERS\HSCC\DOCUMENTS\GITHUB\SE_TEAMPROJECT\CALCULATOR\視窗程式設計第5次作業_4105056021_賴怡呈\DEBUG\VC142.PDB
C:\USERS\HSCC\DOCUMENTS\GITHUB\SE_TEAMPROJECT\CALCULATOR\視窗程式設計第5次作業_4105056021_賴怡呈\DEBUG\視窗程式設計第5次作業_4105056021_賴怡呈.OBJ
C:\USERS\HSCC\DOCUMENTS\GITHUB\SE_TEAMPROJECT\CALCULATOR\視窗程式設計第5次作業_4105056021_賴怡呈\DEBUG\INPUT.OBJ
C:\USERS\HSCC\DOCUMENTS\GITHUB\SE_TEAMPROJECT\CALCULATOR\視窗程式設計第5次作業_4105056021_賴怡呈\DEBUG\MYFORM.OBJ
^C:\USERS\HSCC\DOCUMENTS\GITHUB\SE_TEAMPROJECT\CALCULATOR\視窗程式設計第5次作業_4105056021_賴怡呈\MYFORM.CPP
C:\USERS\HSCC\DOCUMENTS\GITHUB\SE_TEAMPROJECT\CALCULATOR\視窗程式設計第5次作業_4105056021_賴怡呈\DEBUG\VC142.PDB
^C:\USERS\HSCC\DOCUMENTS\GITHUB\SE_TEAMPROJECT\CALCULATOR\視窗程式設計第5次作業_4105056021_賴怡呈\INPUT.CPP
C:\USERS\HSCC\DOCUMENTS\GITHUB\SE_TEAMPROJECT\CALCULATOR\視窗程式設計第5次作業_4105056021_賴怡呈\DEBUG\VC142.PDB
^C:\USERS\HSCC\DOCUMENTS\GITHUB\SE_TEAMPROJECT\CALCULATOR\視窗程式設計第5次作業_4105056021_賴怡呈\視窗程式設計第5次作業_4105056021_賴怡呈.CPP
C:\USERS\HSCC\DOCUMENTS\GITHUB\SE_TEAMPROJECT\CALCULATOR\視窗程式設計第5次作業_4105056021_賴怡呈\DEBUG\VC142.PDB
